com\accenture\urobzmenu\todolist\ToDoListController_OldTest.class
com\accenture\urobzmenu\todolist\TodolistApplicationTests.class
com\accenture\urobzmenu\todolist\ToDoListControllerTest.class
com\accenture\urobzmenu\todolist\DbToDoItemMapperTest.class
